{
  "type": "service_account",
  "project_id": "robert-181918",
  "private_key_id": "46c1a5d2c9ee1634352b16ff437c1a16bb30a6b5",
  "private_key": "-----BEGIN PRIVATE KEY-----\nMIIEvwIBADANBgkqhkiG9w0BAQEFAASCBKkwggSlAgEAAoIBAQC+5flpnF1IY13n\nv2YsCgReniQaF2Obmx1Tip5j9EK0Kng4OFlGTujnf1eNf7cfFmYf3LfN5O6wNKeI\n/znMAGfsrYHJteZsfInTi6vPCPjUf6ejXAn8bIwn2ZLgz/AcOoU2ht10MMk8Wg2z\n6F+7ZV/p22/6w66c2JN5q8CuAVaY9exCnTBbnpQuCHKC/Su4PWK1l6ossko8PytC\ni2s/4UOeieTgWMFGN25iQLXkfg5ZtZkkjWEv74KdQO8DE3yz4E+nBugHJwTZpRaY\nbOBRU6Vvs3Ib9jykoJV7IOoUhM7V7o1wLIrstH1PWspADSmenLrUJhGG89Qa9huL\nDHWSJqnZAgMBAAECggEAGy4s7TXbjVFCn1rf7hDODvfGzaU7ZD45dnnj8/jlH3h1\njhGt2mYlYMK/oVDILse2aj53uDvqpVGV8hpe7RY4tdj9hA4ffR5dVG7MW2ncXgs/\n//E8pcGB0jG3KUXKGwbVDU62DNNeb7alwVIqgUjdl3NMViDTBZeLpfUHte7QWO5a\nCRgLGnmmT5XEXs8xW7vGpHuGARTsnzxi5aOKZtMW2PSZ7aPTf6+FrQptJ0SJw8Yk\nF+i+ReZyTphCKOzjmGOSfMa6whuYziATltFtfzH+cvrf/K0aRS3KGGk/xLeGbeeP\nzMn3kmszDvyl5AAB1O2jxReICM7QN1qogTRbC/3hZQKBgQDigqugUg/F1PEB6/np\n8S0BtXlpzRojsW0ye1Xd5i/CmZKr1FRyY6huB5EH8juMaymE1aRXT6lUBBT/Xz4t\n61EF9xV4PQayLXdTD+io6xvyAMIXoLAK5y64wY8LAqKhBqvrNgSIeoBKzSACOpU8\npdgkTJ0eBIO791EZLAK8ERMdPQKBgQDXwGTkh2FPvMC4TxdHmIRwHCGc0Y9dqTl3\nLQxpp5gtUl/F1c5Fjo9SGBz3lSQkr7sudYBuk/qmDEBjdtbII9nWkY9iVllVqelr\nCCYpYHTgVnuTw4ciOY7FVpGx6czbsVDIzfCN29AryDd6k3WjtYv93Nr/gL24WK3l\nJnNuMz1AzQKBgQCReO6U1l8+5RWr8EvfDX+kO1KwuoLxLYA+DawGCVHfHxZtuL5L\ngOmpUL66Zb4M3r4Zi8QyNv0+8igyIo8imqC8vgVR5Y+pWz3pYKxB4E1gTVBaMF8f\ngX4mNlmR7q1X0ZsUQusCY/qFD9xg0hMKklCQb4vwvWGFlL7G9dcDxcuK2QKBgQCA\nNLO/mTMaTu+2lkkfImKQvCa9KUooPgcH6p0Vq6GiTPDcftC0RKKmBe4wsU9o/YQd\nd3V6QDURtvYMJPI8vBEWkCjEJsuvO+iY0Z7bt5W8Oaf1hpsmm01btrWdI3G4mwWG\nTdpEcfqiCbft/vJI9fjaQgNhEP+sLAYpxU+SjKA5gQKBgQCcfA+sAjRDB1XylFN3\nXVAWnnNjRvUgGQpThycpymLeFBb0DortiiwV/euCEn0R4z9syQ3EqN2LGjQ6jo9F\njjzNRoG6JQy68+SdH5RE3E6rTftCypwvOsXUQ17+rmqaOQQre5YPc9t4u2uj+qvL\nNQqymowZgIxaEy+37JiiJiTOQw==\n-----END PRIVATE KEY-----\n",
  "client_email": "robert@robert-181918.iam.gserviceaccount.com",
  "client_id": "116115023663304547446",
  "auth_uri": "https://accounts.google.com/o/oauth2/auth",
  "token_uri": "https://accounts.google.com/o/oauth2/token",
  "auth_provider_x509_cert_url": "https://www.googleapis.com/oauth2/v1/certs",
  "client_x509_cert_url": "https://www.googleapis.com/robot/v1/metadata/x509/robert%40robert-181918.iam.gserviceaccount.com"
}
