
{
    "name": "Robert",
    "email": "robert@reamp.com.br",
    "username": "robert@reamp.com.br",
    "password": "U3[p+:hV3;ZdSpN6",
    "imap": {
        "host": "imap.gmail.com",
        "port": 993,
        "secure": true
    },
    "smtp": {
        "host": "smtp.gmail.com",
        "ssl": true
    }
}